ESC/Java version ESCJava-2.0.5
    [0.09 s 64057536 bytes]

bookings.Customer ...
  Prover started:0.025 s 87342232 bytes
    [1.072 s 87342232 bytes]

bookings.Customer: Customer() ...
    [0.051 s 88367408 bytes]  passed
  [1.124 s 88367408 bytes total]

bookings.ReservationException ...
    [0.632 s 105549736 bytes]

bookings.ReservationException: ReservationException() ...
    [3.382 s 81637920 bytes]  passed
  [4.015 s 81637920 bytes total]

bookings.Seat ...
    [0.02 s 81637920 bytes]

bookings.Seat: Seat(char, int) ...
    [0.232 s 82928896 bytes]  passed

bookings.Seat: getRow() ...
    [0.017 s 82928896 bytes]  passed

bookings.Seat: getNumber() ...
    [0.0060 s 82928896 bytes]  passed
  [0.276 s 82928896 bytes total]

bookings.SeatReservationDemo ...
    [0.0050 s 82928896 bytes]

bookings.SeatReservationDemo: main(java.lang.String[]) ...
    [0.035 s 84219872 bytes]  passed

bookings.SeatReservationDemo: SeatReservationDemo() ...
    [0.0050 s 84219872 bytes]  passed
  [0.047 s 84219872 bytes total]

bookings.SeatReservationManager ...
    [0.164 s 90675000 bytes]

bookings.SeatReservationManager: SeatReservationManager() ...
    [0.235 s 94548024 bytes]  passed

bookings.SeatReservationManager: isReserved(bookings.Seat) ...
    [0.922 s 97129944 bytes]  passed

bookings.SeatReservationManager: reserve(bookings.Seat, bookings.Customer) ...
------------------------------------------------------------------------
bookings/SeatReservationManager.java:26: Warning: Type of right-hand side possibly not a subtype of array element type (ArrayStore)
                        [numberToIndex(s.getNumber())] = c;
                                                       ^
Execution trace information:
    Executed else branch in "bookings/SeatReservationManager.java", line 22, col 8.

------------------------------------------------------------------------
    [1.729 s 104949728 bytes]  failed

bookings.SeatReservationManager: unreserve(bookings.Seat) ...
    [0.687 s 110113768 bytes]  passed

bookings.SeatReservationManager: reserveNextFree(bookings.Customer) ...
    [1.295 s 80410712 bytes]  passed

bookings.SeatReservationManager: toString() ...
    [5.069 s 150237400 bytes]  passed

bookings.SeatReservationManager: rowToIndex(char) ...
    [0.014 s 151734760 bytes]  passed

bookings.SeatReservationManager: numberToIndex(int) ...
    [0.011 s 153232152 bytes]  passed

bookings.SeatReservationManager: indexToRow(int) ...
    [0.02 s 153232152 bytes]  passed

bookings.SeatReservationManager: indexToNumber(int) ...
    [0.012 s 154729512 bytes]  passed
  [10.159 s 154729512 bytes total]
1 warning
